{
	"name":"Member management"
	,"class":"fa fa-users"
	,"sort":"20"
	,"act": [
		{"link": "@index", "name": "Member management", "class": ""},
		{"link": "@manage", "name": "Admin management", "class": ""}
	]
}